module gitlab.com/lologarithm/fairdice

go 1.21.4

require (
	git.sr.ht/~sbinet/gg v0.5.0 // indirect
	github.com/ajstarks/svgo v0.0.0-20211024235047-1546f124cd8b // indirect
	github.com/campoy/embedmd v1.0.0 // indirect
	github.com/go-fonts/liberation v0.3.2 // indirect
	github.com/go-latex/latex v0.0.0-20231108140139-5c1ce85aa4ea // indirect
	github.com/go-pdf/fpdf v0.9.0 // indirect
	github.com/goccmack/gocc v0.0.0-20230228185258-2292f9e40198 // indirect
	github.com/golang/freetype v0.0.0-20170609003504-e2365dfdc4a0 // indirect
	github.com/pmezard/go-difflib v1.0.0 // indirect
	golang.org/x/exp v0.0.0-20240325151524-a685a6edb6d8 // indirect
	golang.org/x/image v0.15.0 // indirect
	golang.org/x/mod v0.16.0 // indirect
	golang.org/x/text v0.14.0 // indirect
	golang.org/x/tools v0.19.0 // indirect
	gonum.org/v1/gonum v0.15.0 // indirect
	gonum.org/v1/plot v0.14.0 // indirect
)
